…
    ##        city        year  weekofyear total_cases 
    ##           0           0           0           0

### Validate with at least one external data source

``` r
dengue_labels_train %>%
  group_by(city,year) %>%
  summarise(Weekly_mean=mean(total_cases), Weekly_max=max(total_cases), Yearly_total=sum(total_cases))
```

    ## # A tibble: 30 x 5
    ## # Groups:   city [2]
    ##    city   year Weekly_mean Weekly_max Yearly_total
    ##    <chr> <dbl>       <dbl>      <dbl>        <dbl>
    ##  1 iq     2000       0.154          1            4
    ##  2 iq     2001       0.269          4           14
    ##  3 iq     2002      13.5           38          704
    ##  4 iq     2003       2.19          10          114
    ##  5 iq     2004      12.3          116          638
    ##  6 iq     2005       5.98          16          311
    ##  7 iq     2006       8.38          39          436
    ##  8 iq     2007       7.02          28          365
    ##  9 iq     2008      15.4           63          801
    ## 10 iq     2009       6.23          35          324
    ## # … with 20 more rows
…
``` r
weekly_average <- merged_dengue.filled %>%
  group_by(city,weekofyear) %>%
  summarize(Mean=mean(total_cases), StdDev=sd(total_cases))

weekly_average
```

    ## # A tibble: 106 x 4
    ## # Groups:   city [2]
    ##    city  weekofyear  Mean StdDev
    ##    <chr>      <dbl> <dbl>  <dbl>
    ##  1 iq             1   9.3  10.2 
    ##  2 iq             2  13.8  16.6 
    ##  3 iq             3  10.8   7.27
    ##  4 iq             4  15.8  13.1 
    ##  5 iq             5  14.8  15.4 
    ##  6 iq             6  14.1  12.0 
    ##  7 iq             7  12.1   8.99
    ##  8 iq             8  11.7  10.9 
    ##  9 iq             9  11.1   8.41
    ## 10 iq            10   8.3   7.04
    ## # … with 96 more rows
…
